Introducton to missing values
…
Read result: The first value of sleep_rem is missing, the next 6 values are complete 

3.4 Summaries with group_by

These summary functions can work easily with dplyr package. For example, group_by() allows summary of missingness within specified grouping variable:

msleep %>% 
  group_by(vore) %>% # carnivore, omnivore or herbivore
  miss_var_table()
## # A tibble: 22 x 4
##    vore  n_miss_in_var n_vars pct_vars
##    <chr>         <int>  <int>    <dbl>
##  1 carni             0      6       60
##  2 carni             5      1       10
##  3 carni             9      1       10
##  4 carni            10      1       10
##  5 carni            14      1       10
##  6 omni              0      6       60
##  7 omni              2      1       10
##  8 omni              3      1       10
##  9 omni              9      1       10
## 10 omni             11      1       10
## #  with 12 more rows

Read result: This tabular summarizes missingness pattern in the group of carnivore, omnivore or herbivore respectively. For example, carnivores has 6 variables that are complete.

Same with row-wise summary:

msleep %>% 
  group_by(vore) %>% # carnivore, omnivore or herbivore
  miss_case_table()
## # A tibble: 21 x 4
##    vore  n_miss_in_case n_cases pct_cases
##    <chr>          <int>   <int>     <dbl>
##  1 carni              0       3     15.8 
##  2 carni              1       3     15.8 
##  3 carni              2       5     26.3 
##  4 carni              3       7     36.8 
##  5 carni              4       1      5.26
##  6 omni               0       5     25   
##  7 omni               1       8     40   
##  8 omni               2       5     25   
##  9 omni               3       1      5   
## 10 omni               4       1      5   
## #  with 11 more rows
…
